D:\work\kpmg\test\db-analytics\dbanalyzer-core\src\main\java\com\db\demomidtier\LoginController.java
D:\work\kpmg\test\db-analytics\dbanalyzer-core\src\main\java\com\db\demomidtier\PropertyLoader.java
D:\work\kpmg\test\db-analytics\dbanalyzer-core\src\main\java\com\db\demomidtier\Utils.java
D:\work\kpmg\test\db-analytics\dbanalyzer-core\src\main\java\com\db\demomidtier\UserData.java
D:\work\kpmg\test\db-analytics\dbanalyzer-core\src\main\java\com\db\demomidtier\DBConnector.java
